[
  {
    "checkbox":true,
  "process":"P44 Kundensupport",
  "name":"SystemAccess",
  "docType":" Vorlage/Formular",
  "fullText":"System Access Kundenname 1Inhaltsverzeichnis 1Inhaltsverzeichnis1 2Letzte Änderungen1 3Remote Access1 3.1Installatio",
  "noticeSearch":"asdasd asd asd asda asdas dasd asd asd asd",
  "status":"Freigegeben",
  "version":"2"
  },
  {
    "checkbox":true,
    "process":"P44 Kundensupport",
    "name":"SystemAccess",
    "docType":" Vorlage/Formular",
    "fullText":"System Access Kundenname 1Inhaltsverzeichnis 1Inhaltsverzeichnis1 2Letzte Änderungen1 3Remote Access1 3.1Installatio",
    "noticeSearch":"asdasd asd asd asda asdas dasd asd asd asd",
    "status":"Freigegeben",
    "version":"2"
  },
  {
    "checkbox":true,
    "process":"P44 Kundensupport",
    "name":"SystemAccess",
    "docType":" Vorlage/Formular",
    "fullText":"System Access Kundenname 1Inhaltsverzeichnis 1Inhaltsverzeichnis1 2Letzte Änderungen1 3Remote Access1 3.1Installatio",
    "noticeSearch":"asdasd asd asd asda asdas dasd asd asd asd",
    "status":"Freigegeben",
    "version":"2"
  },
  {
    "checkbox":true,
    "process":"P44 Kundensupport",
    "name":"SystemAccess",
    "docType":" Vorlage/Formular",
    "fullText":"System Access Kundenname 1Inhaltsverzeichnis 1Inhaltsverzeichnis1 2Letzte Änderungen1 3Remote Access1 3.1Installatio",
    "noticeSearch":"asdasd asd asd asda asdas dasd asd asd asd",
    "status":"Freigegeben",
    "version":"2"
  },
  {
    "checkbox":true,
    "process":"P44 Kundensupport",
    "name":"SystemAccess",
    "docType":" Vorlage/Formular",
    "fullText":"System Access Kundenname 1Inhaltsverzeichnis 1Inhaltsverzeichnis1 2Letzte Änderungen1 3Remote Access1 3.1Installatio",
    "noticeSearch":"asdasd asd asd asda asdas dasd asd asd asd",
    "status":"Freigegeben",
    "version":"2"
  },
  {
    "checkbox":true,
    "process":"P44 Kundensupport",
    "name":"SystemAccess",
    "docType":" Vorlage/Formular",
    "fullText":"System Access Kundenname 1Inhaltsverzeichnis 1Inhaltsverzeichnis1 2Letzte Änderungen1 3Remote Access1 3.1Installatio",
    "noticeSearch":"asdasd asd asd asda asdas dasd asd asd asd",
    "status":"Freigegeben",
    "version":"2"
  },
  {
    "checkbox":true,
    "process":"P44 Kundensupport",
    "name":"SystemAccess",
    "docType":" Vorlage/Formular",
    "fullText":"System Access Kundenname 1Inhaltsverzeichnis 1Inhaltsverzeichnis1 2Letzte Änderungen1 3Remote Access1 3.1Installatio",
    "noticeSearch":"asdasd asd asd asda asdas dasd asd asd asd",
    "status":"Freigegeben",
    "version":"2"
  },
  {
    "checkbox":true,
    "process":"P44 Kundensupport",
    "name":"SystemAccess",
    "docType":" Vorlage/Formular",
    "fullText":"System Access Kundenname 1Inhaltsverzeichnis 1Inhaltsverzeichnis1 2Letzte Änderungen1 3Remote Access1 3.1Installatio",
    "noticeSearch":"asdasd asd asd asda asdas dasd asd asd asd",
    "status":"Freigegeben",
    "version":"2"
  },
  {
    "checkbox":true,
    "process":"P44 Kundensupport",
    "name":"SystemAccess",
    "docType":" Vorlage/Formular",
    "fullText":"System Access Kundenname 1Inhaltsverzeichnis 1Inhaltsverzeichnis1 2Letzte Änderungen1 3Remote Access1 3.1Installatio",
    "noticeSearch":"asdasd asd asd asda asdas dasd asd asd asd",
    "status":"Freigegeben",
    "version":"2"
  },
  {
    "checkbox":true,
    "process":"P44 Kundensupport",
    "name":"SystemAccess",
    "docType":" Vorlage/Formular",
    "fullText":"System Access Kundenname 1Inhaltsverzeichnis 1Inhaltsverzeichnis1 2Letzte Änderungen1 3Remote Access1 3.1Installatio",
    "noticeSearch":"asdasd asd asd asda asdas dasd asd asd asd",
    "status":"Freigegeben",
    "version":"2"
  },
  {
    "checkbox":true,
    "process":"P44 Kundensupport",
    "name":"SystemAccess",
    "docType":" Vorlage/Formular",
    "fullText":"System Access Kundenname 1Inhaltsverzeichnis 1Inhaltsverzeichnis1 2Letzte Änderungen1 3Remote Access1 3.1Installatio",
    "noticeSearch":"asdasd asd asd asda asdas dasd asd asd asd",
    "status":"Freigegeben",
    "version":"2"
  },
  {
    "checkbox":true,
    "process":"P44 Kundensupport",
    "name":"SystemAccess",
    "docType":" Vorlage/Formular",
    "fullText":"System Access Kundenname 1Inhaltsverzeichnis 1Inhaltsverzeichnis1 2Letzte Änderungen1 3Remote Access1 3.1Installatio",
    "noticeSearch":"asdasd asd asd asda asdas dasd asd asd asd",
    "status":"Freigegeben",
    "version":"2"
  },
  {
    "checkbox":true,
    "process":"P44 Kundensupport",
    "name":"SystemAccess",
    "docType":" Vorlage/Formular",
    "fullText":"System Access Kundenname 1Inhaltsverzeichnis 1Inhaltsverzeichnis1 2Letzte Änderungen1 3Remote Access1 3.1Installatio",
    "noticeSearch":"asdasd asd asd asda asdas dasd asd asd asd",
    "status":"Freigegeben",
    "version":"2"
  },
  {
    "checkbox":true,
    "process":"P44 Kundensupport",
    "name":"SystemAccess",
    "docType":" Vorlage/Formular",
    "fullText":"System Access Kundenname 1Inhaltsverzeichnis 1Inhaltsverzeichnis1 2Letzte Änderungen1 3Remote Access1 3.1Installatio",
    "noticeSearch":"asdasd asd asd asda asdas dasd asd asd asd",
    "status":"Freigegeben",
    "version":"2"
  },
  {
    "checkbox":true,
    "process":"P44 Kundensupport",
    "name":"SystemAccess",
    "docType":" Vorlage/Formular",
    "fullText":"System Access Kundenname 1Inhaltsverzeichnis 1Inhaltsverzeichnis1 2Letzte Änderungen1 3Remote Access1 3.1Installatio",
    "noticeSearch":"asdasd asd asd asda asdas dasd asd asd asd",
    "status":"Freigegeben",
    "version":"2"
  },
  {
    "checkbox":true,
    "process":"P44 Kundensupport",
    "name":"SystemAccess",
    "docType":" Vorlage/Formular",
    "fullText":"System Access Kundenname 1Inhaltsverzeichnis 1Inhaltsverzeichnis1 2Letzte Änderungen1 3Remote Access1 3.1Installatio",
    "noticeSearch":"asdasd asd asd asda asdas dasd asd asd asd",
    "status":"Freigegeben",
    "version":"2"
  },
  {
    "checkbox":true,
    "process":"P44 Kundensupport",
    "name":"SystemAccess",
    "docType":" Vorlage/Formular",
    "fullText":"System Access Kundenname 1Inhaltsverzeichnis 1Inhaltsverzeichnis1 2Letzte Änderungen1 3Remote Access1 3.1Installatio",
    "noticeSearch":"asdasd asd asd asda asdas dasd asd asd asd",
    "status":"Freigegeben",
    "version":"2"
  },
  {
    "checkbox":true,
    "process":"P44 Kundensupport",
    "name":"SystemAccess",
    "docType":" Vorlage/Formular",
    "fullText":"System Access Kundenname 1Inhaltsverzeichnis 1Inhaltsverzeichnis1 2Letzte Änderungen1 3Remote Access1 3.1Installatio",
    "noticeSearch":"asdasd asd asd asda asdas dasd asd asd asd",
    "status":"Freigegeben",
    "version":"2"
  }
]